Youtube Video Analysis – Jordan Vickers
…
#Sentiments

bing_sentiments <- get_sentiments(lexicon = "bing")
afinn_sentiments <- get_sentiments(lexicon = "afinn")
nrc_sentiments <- get_sentiments(lexicon = "nrc")

EDA

#Different keywords that I will use as categories
stats %>%
  group_by(Keyword) %>%
  summarise(mean_views = mean(Views), mean_comments = mean(Comments), mean_likes = mean(Likes) ) %>%
  arrange(desc(mean_likes)) 

# A tibble: 41 × 4
   Keyword  mean_views mean_comments mean_likes
   <chr>         <dbl>         <dbl>      <dbl>
 1 mrbeast   66764004.        95944.   2105914.
 2 animals   94723961.        21872.    760776.
 3 bed       53893229.        15181.    473682.
 4 google   103364971.        22646.    471167.
 5 music     29364893.        12289.    314188.
 6 cubes     15038739.         6833.    303061.
 7 history   15047130.        20190.    273411.
 8 marvel     6614080.         9701.    210379.
 9 tutorial   6761032.         7935.    167721.
10 how-to     7809285.         6951.    158898.
# ℹ 31 more rows
…
