Basketball Project – Jordan Vickers
…
#Table of interest is the first table
Basketball_table <- html_table(title_temp, header = T, fill = T)[[1]] %>% row_to_names(row_number = 1) %>% 
  clean_names() %>%
  select(-c(starts_with("na"))) %>%
  select(1:16)

return(Basketball_table)

}

test<- basketball_scrape("2000")
test

# A tibble: 326 × 16
   rk    school      g     w     l     w_l_percent srs   sos   w_2   l_2   w_3  
   <chr> <chr>       <chr> <chr> <chr> <chr>       <chr> <chr> <chr> <chr> <chr>
 1 1     Air Force   28    9     19    .321        -7.45 2.05  3     15    7    
 2 2     Akron       26    8     18    .308        -10.… -5.06 3     15    5    
 3 3     Alabama     29    16    13    .552        9.66  7.83  7     9     12   
 4 4     Alabama St… 27    14    13    .519        -8.49 -9.70 9     5     9    
 5 5     Alcorn Sta… 27    7     20    .259        -11.… -4.58 5     9     3    
 6 6     American    28    11    17    .393        -0.17 1.15  6     8     6    
 7 7     Appalachia… 28    13    15    .464        -6.09 -4.27 8     10    8    
 8 8     Arizona NC… 28    24    4     .857        20.50 8.28  17    1     14   
 9 9     Arizona St… 28    18    10    .643        9.24  6.99  11    7     13   
10 10    Arkansas N… 31    22    9     .710        17.72 8.30  10    6     12   
# ℹ 316 more rows
# ℹ 5 more variables: l_3 <chr>, w_4 <chr>, l_4 <chr>, tm <chr>, opp <chr>
…
conference_years <- function(year_list) {
conference_data_list <- purrr::map(year_list, ~ basketball_scrape_c(year = .x) %>% mutate(year = .x))
conference_stats_all_years <- list_rbind(conference_data_list)
conference_stats_all_years
}

years <- c("2018","2019") # testing the code for multiple years
test4 <- conference_years(years) # testing the new function
test4

# A tibble: 64 × 14
      Rk Conference       Schls     W     L `W-L%`   SRS   SOS    AP  NCAA    FF
   <int> <chr>            <int> <int> <int>  <dbl> <dbl> <dbl> <int> <int> <int>
 1     1 Big East Confer…    10   213   128  0.625 14.2   9.28     0     6     1
 2     2 Pac-12 Conferen…    12   231   172  0.573  8.61  6.15     1     3     0
 3     3 Big 12 Conferen…    10   220   130  0.629 15.2   9.83     0     7     1
 4     4 Southeastern Co…    14   286   193  0.597 13     9.34     0     8     0
 5     5 Atlantic 10 Con…    14   232   224  0.509  2.26  1.99     0     3     0
 6     6 Atlantic Coast …    15   315   200  0.612 13.4   8.51     0     9     0
 7     7 Big Ten Confere…    14   289   189  0.605 13.0   7.99     0     4     1
 8     8 West Coast Conf…    10   180   159  0.531  1.83  1.43     0     1     0
 9     9 Conference USA      14   245   221  0.526  0.22  0.2      0     1     0
10    10 American Athlet…    12   224   168  0.571  5.58  3.41     0     3     0
# ℹ 54 more rows
# ℹ 3 more variables: `Regular Season Champ` <chr>, `Tournament Champ` <chr>,
#   year <chr>
